{
  "images" : [
    {
      "filename" : "BUS_004_R_EN.png",
      "idiom" : "universal"
    }
  ],
  "info" : {
    "author" : "xcode",
    "version" : 1
  },
  "properties" : {
    "width" : 0.065000000000000002
  }
}
